…
The result is an sf tibble with one row per dissemination area, and a few basic variables, including dwellings. (If you want additional census variables, you add the vectors argument to your get_census call.)

DAs

## Simple feature collection with 1658 features and 10 fields
## geometry type:  MULTIPOLYGON
## dimension:      XY
## bbox:           xmin: 1666387 ymin: 4914789 xmax: 2207339 ymax: 5445659
## epsg (SRID):    32617
## proj4string:    +proj=utm +zone=17 +datum=WGS84 +units=m +no_defs
## # A tibble: 1,658 x 11
##    `Shape Area` Type  Dwellings Households GeoUID Population CD_UID CSD_UID
##  *        <dbl> <fct>     <int>      <int> <chr>       <int> <chr>  <chr>  
##  1     1123.    DA          319        215 12010…        448 1201   1201006
##  2        5.03  DA          213        204 12010…        417 1201   1201008
##  3        0.757 DA          240        223 12010…        455 1201   1201008
##  4        1.02  DA          245        200 12010…        408 1201   1201008
##  5        2.26  DA          211        196 12010…        463 1201   1201008
##  6       38.1   DA          278        240 12010…        516 1201   1201006
##  7       56.4   DA          210        189 12010…        448 1201   1201006
##  8       66.7   DA          443        326 12010…        705 1201   1201006
##  9      130.    DA          292        205 12010…        466 1201   1201006
## 10      409.    DA          458        286 12010…        640 1201   1201001
## # … with 1,648 more rows, and 3 more variables: CMA_UID <chr>, CT_UID <chr>,
## #   geometry <MULTIPOLYGON [m]>
…
The result is a table with one row per dissemination area, and two columns: one identifying each DA with a GeoUID and one describing the total number of active STR listings. This table is hosted on the UPGo website for anyone who wants to follow along with the example themselves.

load(url("https://upgo.lab.mcgill.ca/data/listings_NS.Rdata"))

listings_NS

## # A tibble: 1,057 x 2
##    GeoUID       n
##    <chr>    <int>
##  1 12010030     4
##  2 12010031    10
##  3 12010032     2
##  4 12010033     7
##  5 12010035     4
##  6 12010036     1
##  7 12010037    14
##  8 12010039     8
##  9 12010040     3
## 10 12010042     1
## # … with 1,047 more rows
…
## Joining, by = "GeoUID"

DAs

## Simple feature collection with 1658 features and 3 fields
## geometry type:  GEOMETRY
## dimension:      XY
## bbox:           xmin: 1666388 ymin: 4914789 xmax: 2207339 ymax: 5445659
## epsg (SRID):    32617
## proj4string:    +proj=utm +zone=17 +datum=WGS84 +units=m +no_defs
## # A tibble: 1,658 x 4
##    GeoUID  dwellings listings                                           geometry
##    <chr>       <int>    <int>                                     <GEOMETRY [m]>
##  1 120100…       319        4 POLYGON ((1746426 5017585, 1759270 5007455, 17726…
##  2 120100…       213       10 POLYGON ((1763788 4967526, 1763619 4967399, 17633…
##  3 120100…       240        2 POLYGON ((1762700 4967619, 1762781 4967472, 17629…
##  4 120100…       245        7 POLYGON ((1762446 4966633, 1762539 4966495, 17626…
##  5 120100…       211       NA POLYGON ((1764227 4967031, 1764932 4966221, 17647…
##  6 120100…       278        4 MULTIPOLYGON (((1768292 4971361, 1768326 4971322,…
##  7 120100…       210        1 POLYGON ((1769241 4966361, 1769291 4966267, 17694…
##  8 120100…       443       14 MULTIPOLYGON (((1761998 4966960, 1762079 4966856,…
##  9 120100…       292       NA POLYGON ((1763453 4953524, 1763180 4952764, 17631…
## 10 120100…       458        8 MULTIPOLYGON (((1744234 4978860, 1744316 4978825,…
## # … with 1,648 more rows
…
